A Data-Driven Look at Tone: Part 1 | Nicholas Fox
…
After some errors in collecting some tweets, I wound up collecting tweets from 975 out of the 1,000 users. From these 975 users, I collected 180,439 tweets.

##   n_distinct(screen_name) length(text)
## 1                     975       180439

I then split all the tweets into individual words - this is the most basic way of looking at text content. Ill be delving into more later, but as a fast first pass, this may be informative. I got rid of common stop words (things like and, if, but, etc) and an additional list of common non-words (http, rt, 1-10, amp, de, la, en).

I also removed trump - this word is a confound in the forthcoming sentiment analysis. Typically trump is a positive word, as in I trumped my opponent - but odds are the use of this word these days is referring to the current president. As I didnt want to wade into political tweets, I removed this word for now.

After removing the stop words, I had a total of 1,603,751 words tweeted from open science tweeters (is that what theyre called?).

Here is a table of word frequencies after removing the stop words and the custom list of words.

## # A tibble: 323,313 x 2
##           word     n
##          <chr> <int>
##  1     science  9293
##  2        data  7394
##  3    research  5403
##  4        time  3648
##  5      people  3424
##  6 openscience  3173
##  7         day  3018
##  8       check  2458
##  9        join  2411
## 10        read  2383
## # ... with 323,303 more rows
…
